1,Hernandez,Espino,David,Sistemas,11000,M,~/Photos1/101130008.jpg
2,Garnica,Zarco,Daniel,Gerente,7000,M,~/Photos1/101130002.jpg
3,Gonzalez,Hernandez,zulma,Mantenimiento,6000,F,~/Photos1/101130005.jpg
4,Guevara,Cruz,Linet,Recursos Humanos,10000,F,~/Photos1/101130006.jpg
5,Tinajero,islas,Lizbeth,Logistica,5000,F,~/Photos1/tan.jpg